' "Computers and Chaos: Amiga Edition" Support Disk
' LISTING 6.1 (c)1992 Conrad Bessant
'
COLOR 1
plant$="1[1]1[1[1]1]"    !Put sample string into plant$
unit_length=10           !Set up constants for unit length...
unit_angle=PI/4          !...and unit angle
'
GOSUB draw_plant         !Call procedure to draw the plant
@waitmouse               !Wait for a mouse key press
'
PROCEDURE draw_plant
  angle_count=0                      !Initialise angle count
  pointer=0                          !Set up initial string pointer position
  GOSUB draw_branch(320,180)
RETURN
'
PROCEDURE draw_branch(x,y)
  INC pointer                        !Increment pointer position and...
  character$=MID$(plant$,pointer,1)  !...note character in that position
  '
  REPEAT
    SELECT character$
    CASE "1"                !If the character is a 1, draw a segment
      PLOT x,y
      x=x+SIN(angle_count)*unit_length*2
      y=y-COS(angle_count)*unit_length
      DRAW  TO x,y
      '
    CASE "["                !If it's a [ then branch off
      ADD angle_count,unit_angle
      GOSUB draw_branch(x,y)
    ENDSELECT
    INC pointer                      !Note next character
    character$=MID$(plant$,pointer,1)
  UNTIL character$="]" OR character$=""
  '
  SUB angle_count,unit_angle         !If it's a ] (end of branch) then
RETURN                               !decrease angle count and return
'
' The procedure definition below has been included from appendix A of the book
'
PROCEDURE waitmouse
  REPEAT
  UNTIL MOUSEK>0
RETURN
