' "Computers and Chaos: Amiga Edition" Support Disk
' LISTING 8.1 (c)1992 Conrad Bessant
'
REM Request constants
INPUT "a=",a
INPUT "b=",b
INPUT "c=",c
CLS
'
REM Set initial values for variables
x=0
y=0
i=0
'
REM Nested loops to draw fractal and check for mouse button
REPEAT
  REPEAT
    '
    REM Perform Martin process
    xnew=y-SGN(x)*SQR(ABS(b*x-c))
    ynew=a-x
    x=xnew
    y=ynew
    '
    PLOT 300+x*0.8,100-y*0.4       !Plot point
    INC i                          !Increment iteration count
  UNTIL MOUSEK>0                   !If mouse button is pressed...
  message$="Iterations:"+STR$(i)+"| |Do you want to leave|the program?"
  ALERT 1,message$,2,"Yes|No",button    !Display alert box
UNTIL button=1                     !If user selects YES...
EDIT                               !return to editing screen
'
' The procedure definition below has been included from appendix A of the book
'
PROCEDURE waitmouse
  REPEAT
  UNTIL MOUSEK>0
RETURN
